chopped.R
…
#one very low rating
chopped%>%
  select(episode_rating, episode_name)%>%
  arrange((episode_rating))

## # A tibble: 569 x 2
##    episode_rating episode_name                    
##             <dbl> <chr>                           
##  1            5.5 Worst Cooks Challenge           
##  2            6.9 Extreme Halloween               
##  3            6.9 Beer Here!                      
##  4            7   Teen Tournament: Episode Three  
##  5            7.1 Deadliest Baskets               
##  6            7.1 Chopped: Beat Bobby Flay, Part 1
##  7            7.1 Whiskey and Wings               
##  8            7.1 Star Power: The Last Laugh!     
##  9            7.1 The Newlywed Game               
## 10            7.2 Leftovers Rescue Mission        
## # ... with 559 more rows
…
ingredients%>%
  count(ingredient, sort = TRUE)

## # A tibble: 4,187 x 2
##    ingredient        n
##    <chr>         <int>
##  1 asparagus        15
##  2 rainbow chard    15
##  3 blackberries     14
##  4 okra             14
##  5 avocados         13
##  6 blueberries      13
##  7 bok choy         13
##  8 broccoli rabe    13
##  9 figs             13
## 10 rhubarb          13
## # ... with 4,177 more rows
…
